{"page":1,"total_results":19831,"total_pages":992,"results":[{"vote_count":714,"id":399579,"video":false,"vote_average":6.8,"title":"Alita: Battle Angel","popularity":327.69,"poster_path":"\/xRWht48C2V8XNfzvPehyClOvDni.jpg","original_language":"en","original_title":"Alita: Battle Angel","genre_ids":[28,878,53],"backdrop_path":"\/aQXTw3wIWuFMy0beXRiZ1xVKtcf.jpg","adult":false,"overview":"When Alita awakens with no memory of who she is in a future world she does not recognize, she is taken in by Ido, a compassionate doctor who realizes that somewhere in this abandoned cyborg shell is the heart and soul of a young woman with an extraordinary past.","release_date":"2019-01-31"},{"vote_count":1744,"id":324857,"video":false,"vote_average":8.5,"title":"Spider-Man: Into the Spider-Verse","popularity":275.915,"poster_path":"\/iiZZdoQBEYBv6id8su7ImL0oCbD.jpg","original_language":"en","original_title":"Spider-Man: Into the Spider-Verse","genre_ids":[28,12,16,878,35],"backdrop_path":"\/7d6EY00g1c39SGZOoCJ5Py9nNth.jpg","adult":false,"overview":"Miles Morales is juggling his life between being a high school student and being a spider-man. When Wilson \"Kingpin\" Fisk uses a super collider, others from across the Spider-Verse are transported to this dimension.","release_date":"2018-12-07"},{"vote_count":1348,"id":480530,"video":false,"vote_average":6.6,"title":"Creed II","popularity":255.793,"poster_path":"\/v3QyboWRoA4O9RbcsqH8tJMe8EB.jpg","original_language":"en","original_title":"Creed II","genre_ids":[18],"backdrop_path":"\/8yqLPNwNCtpOPc3XkOlkSMnghzw.jpg","adult":false,"overview":"Between personal obligations and training for his next big fight against an opponent with ties to his family's past, Adonis Creed is up against the challenge of his life.","release_date":"2018-11-21"},{"vote_count":1337,"id":490132,"video":false,"vote_average":8.4,"title":"Green Book","popularity":213.833,"poster_path":"\/7BsvSuDQuoqhWmU2fL7W2GOcZHU.jpg","original_language":"en","original_title":"Green Book","genre_ids":[18,35,10402],"backdrop_path":"\/78PjwaykLY2QqhMfWRDvmfbC6EV.jpg","adult":false,"overview":"Tony Lip, a bouncer in 1962, is hired to drive pianist Don Shirley on a tour through the Deep South in the days when African Americans, forced to find alternate accommodations and services due to segregation laws below the Mason-Dixon Line, relied on a guide called The Negro Motorist Green Book.","release_date":"2018-11-16"},{"vote_count":1467,"id":450465,"video":false,"vote_average":6.7,"title":"Glass","popularity":211.336,"poster_path":"\/svIDTNUoajS8dLEo7EosxvyAsgJ.jpg","original_language":"en","original_title":"Glass","genre_ids":[53,9648,18,14],"backdrop_path":"\/lvjscO8wmpEbIfOEZi92Je8Ktlg.jpg","adult":false,"overview":"In a series of escalating encounters, security guard David Dunn uses his supernatural abilities to track Kevin Wendell Crumb, a disturbed man who has twenty-four personalities. Meanwhile, the shadowy presence of Elijah Price emerges as an orchestrator who holds secrets critical to both men.","release_date":"2019-01-16"},{"vote_count":658,"id":166428,"video":false,"vote_average":8,"title":"How to Train Your Dragon: The Hidden World","popularity":165.141,"poster_path":"\/xvx4Yhf0DVH8G4LzNISpMfFBDy2.jpg","original_language":"en","original_title":"How to Train Your Dragon: The Hidden World","genre_ids":[16,10751,12],"backdrop_path":"\/h3KN24PrOheHVYs9ypuOIdFBEpX.jpg","adult":false,"overview":"As Hiccup fulfills his dream of creating a peaceful dragon utopia, Toothless’ discovery of an untamed, elusive mate draws the Night Fury away. When danger mounts at home and Hiccup’s reign as village chief is tested, both dragon and rider must make impossible decisions to save their kind.","release_date":"2019-01-03"},{"vote_count":62,"id":452832,"video":false,"vote_average":5.1,"title":"Serenity","popularity":163.307,"poster_path":"\/hgWAcic93phg4DOuQ8NrsgQWiqu.jpg","original_language":"en","original_title":"Serenity","genre_ids":[53,18,9648,878],"backdrop_path":"\/oOROXoQ402tHgK6NowmMUSLffkW.jpg","adult":false,"overview":"Baker Dill is a fishing boat captain leading tours off a tranquil, tropical enclave called Plymouth Island. His quiet life is shattered, however, when his ex-wife Karen tracks him down with a desperate plea for help.","release_date":"2019-01-24"},{"vote_count":97,"id":505954,"video":false,"vote_average":4.6,"title":"T-34","popularity":155.187,"poster_path":"\/wNJF8R5QE6nBT7DQoKk8t6YD1MM.jpg","original_language":"ru","original_title":"T-34","genre_ids":[10752,18,12,28],"backdrop_path":"\/59qyrVGLLtrcuFtJGdixzn7H4OI.jpg","adult":false,"overview":"In 1944, a courageous group of Russian soldiers managed to escape from German captivity in a half-destroyed legendary T-34 tank. Those were the times of unforgettable bravery, fierce fighting, unbreakable love, and legendary miracles.","release_date":"2018-12-27"},{"vote_count":5331,"id":424694,"video":false,"vote_average":8.1,"title":"Bohemian Rhapsody","popularity":148.569,"poster_path":"\/lHu1wtNaczFPGFDTrjCSzeLPTKN.jpg","original_language":"en","original_title":"Bohemian Rhapsody","genre_ids":[18,10402],"backdrop_path":"\/xcaSYLBhmDzJ6P14bcKe0KTh3QV.jpg","adult":false,"overview":"Singer Freddie Mercury, guitarist Brian May, drummer Roger Taylor and bass guitarist John Deacon take the music world by storm when they form the rock 'n' roll band Queen in 1970. Hit songs become instant classics. When Mercury's increasingly wild lifestyle starts to spiral out of control, Queen soon faces its greatest challenge yet – finding a way to keep the band together amid the success and excess.","release_date":"2018-10-24"},{"vote_count":1416,"id":404368,"video":false,"vote_average":7.3,"title":"Ralph Breaks the Internet","popularity":139.115,"poster_path":"\/lvfIaThG5HA8THf76nghKinjjji.jpg","original_language":"en","original_title":"Ralph Breaks the Internet","genre_ids":[10751,16,35,14],"backdrop_path":"\/88poTBTafMXaz73vYi3c74g0y2k.jpg","adult":false,"overview":"Video game bad guy Ralph and fellow misfit Vanellope von Schweetz must risk it all by traveling to the World Wide Web in search of a replacement part to save Vanellope's video game, \"Sugar Rush.\" In way over their heads, Ralph and Vanellope rely on the citizens of the internet -- the netizens -- to help navigate their way, including an entrepreneur named Yesss, who is the head algorithm and the heart and soul of trend-making site BuzzzTube.","release_date":"2018-11-20"},{"vote_count":129,"id":512196,"video":false,"vote_average":6.3,"title":"Happy Death Day 2U","popularity":132.876,"poster_path":"\/whtt9F8PFqvEgc4fDSHZPkitFk4.jpg","original_language":"en","original_title":"Happy Death Day 2U","genre_ids":[27,9648,53,878,35],"backdrop_path":"\/7trJGwprMUMKhvSx94lmsq6d985.jpg","adult":false,"overview":"Collegian Tree Gelbman wakes up in horror to learn that she's stuck in a parallel universe. Her boyfriend Carter is now with someone else, and her friends and fellow students seem to be completely different versions of themselves. When Tree discovers that Carter's roommate has been altering time, she finds herself once again the target of a masked killer. When the psychopath starts to go after her inner circle, Tree soon realizes that she must die over and over again to save everyone.","release_date":"2019-02-13"},{"vote_count":3471,"id":338952,"video":false,"vote_average":6.9,"title":"Fantastic Beasts: The Crimes of Grindelwald","popularity":117.101,"poster_path":"\/kQKcbJ9uYkTQql2R8L4jTUz7l90.jpg","original_language":"en","original_title":"Fantastic Beasts: The Crimes of Grindelwald","genre_ids":[10751,14,12],"backdrop_path":"\/wDN3FIcQQ1HI7mz1OOKYHSQtaiE.jpg","adult":false,"overview":"Gellert Grindelwald has escaped imprisonment and has begun gathering followers to his cause—elevating wizards above all non-magical beings. The only one capable of putting a stop to him is the wizard he once called his closest friend, Albus Dumbledore. However, Dumbledore will need to seek help from the wizard who had thwarted Grindelwald once before, his former student Newt Scamander, who agrees to help, unaware of the dangers that lie ahead. Lines are drawn as love and loyalty are tested, even among the truest friends and family, in an increasingly divided wizarding world.","release_date":"2018-11-14"},{"vote_count":25,"id":450001,"video":false,"vote_average":6.1,"title":"Master Z: Ip Man Legacy","popularity":116.035,"poster_path":"\/f2PN2ff0VwcVUSgeJUx6pKHwp4r.jpg","original_language":"cn","original_title":"葉問外傳：張天志","genre_ids":[28],"backdrop_path":"\/nv4KsjnhcSIZtuw2mkT9IxoQ5oq.jpg","adult":false,"overview":"After being defeated by Ip Man, Cheung Tin Chi is attempting to keep a low profile. While going about his business, he gets into a fight with a foreigner by the name of Davidson, who is a big boss behind the bar district. Tin Chi fights hard with Wing Chun and earns respect.","release_date":"2018-12-20"},{"vote_count":11536,"id":299536,"video":false,"vote_average":8.3,"title":"Avengers: Infinity War","popularity":113.634,"poster_path":"\/7WsyChQLEftFiDOVTGkv3hFpyyt.jpg","original_language":"en","original_title":"Avengers: Infinity War","genre_ids":[12,28,14],"backdrop_path":"\/bOGkgRGdhrBYJSLpXaxhXVstddV.jpg","adult":false,"overview":"As the Avengers and their allies have continued to protect the world from threats too large for any one hero to handle, a new danger has emerged from the cosmic shadows: Thanos. A despot of intergalactic infamy, his goal is to collect all six Infinity Stones, artifacts of unimaginable power, and use them to inflict his twisted will on all of reality. Everything the Avengers have fought for has led up to this moment - the fate of Earth and existence itself has never been more uncertain.","release_date":"2018-04-25"},{"vote_count":681,"id":375588,"video":false,"vote_average":5.7,"title":"Robin Hood","popularity":108.076,"poster_path":"\/AiRfixFcfTkNbn2A73qVJPlpkUo.jpg","original_language":"en","original_title":"Robin Hood","genre_ids":[12,28,53],"backdrop_path":"\/AuA50D7T7S7OEVcGo0ZKaMhERn0.jpg","adult":false,"overview":"A war-hardened Crusader and his Moorish commander mount an audacious revolt against the corrupt English crown.","release_date":"2018-11-20"},{"vote_count":1106,"id":375262,"video":false,"vote_average":7.7,"title":"The Favourite","popularity":106.484,"poster_path":"\/cwBq0onfmeilU5xgqNNjJAMPfpw.jpg","original_language":"en","original_title":"The Favourite","genre_ids":[18,36,35],"backdrop_path":"\/ph5fElfh4U7O3jwhFljxz2LDp1l.jpg","adult":false,"overview":"In 18th century England, the close relationship between Queen Anne and Sarah Churchill is threatened by the arrival of Sarah's cousin, Abigail Hill, resulting in a bitter rivalry between the two cousins to be the Queen's favourite.","release_date":"2018-11-20"},{"vote_count":926,"id":428078,"video":false,"vote_average":5.9,"title":"Mortal Engines","popularity":105.598,"poster_path":"\/gLhYg9NIvIPKVRTtvzCWnp1qJWG.jpg","original_language":"en","original_title":"Mortal Engines","genre_ids":[878,28,12,14,53],"backdrop_path":"\/rm2oMykm5nX6SzXFr7TGHkO6r8Z.jpg","adult":false,"overview":"Set in a world many thousands of years in the future. Earth’s cities now roam the globe on huge wheels, devouring each other in a struggle for ever diminishing resources. On one of these massive Traction Cities, Tom Natsworthy has an unexpected encounter with a mysterious young woman from the Outlands who will change the course of his life forever.","release_date":"2018-12-05"},{"vote_count":85,"id":438650,"video":false,"vote_average":4.9,"title":"Cold Pursuit","popularity":103.098,"poster_path":"\/hXgmWPd1SuujRZ4QnKLzrj79PAw.jpg","original_language":"en","original_title":"Cold Pursuit","genre_ids":[53,28,18],"backdrop_path":"\/aiM3XxYE2JvW1vJ4AC6cI1RjAoT.jpg","adult":false,"overview":"Nels Coxman's quiet life comes crashing down when his beloved son dies under mysterious circumstances. His search for the truth soon becomes a quest for revenge as he seeks coldblooded justice against a drug lord and his inner circle.","release_date":"2019-02-07"},{"vote_count":3889,"id":332562,"video":false,"vote_average":7.5,"title":"A Star Is Born","popularity":102.506,"poster_path":"\/wrFpXMNBRj2PBiN4Z5kix51XaIZ.jpg","original_language":"en","original_title":"A Star Is Born","genre_ids":[18,10402,10749],"backdrop_path":"\/wqtaHWOEZ3rXDJ8c6ZZShulbo18.jpg","adult":false,"overview":"Seasoned musician Jackson Maine discovers — and falls in love with — struggling artist Ally. She has just about given up on her dream to make it big as a singer — until Jack coaxes her into the spotlight. But even as Ally's career takes off, the personal side of their relationship is breaking down, as Jack fights an ongoing battle with his own internal demons.","release_date":"2018-10-03"},{"vote_count":225,"id":457136,"video":false,"vote_average":6.7,"title":"Mary Queen of Scots","popularity":101.446,"poster_path":"\/b5RMzLAyq5QW6GtN9sIeAEMLlBI.jpg","original_language":"en","original_title":"Mary Queen of Scots","genre_ids":[18,36],"backdrop_path":"\/iv5N169nQIzrS0pZ8MBEiemTtVt.jpg","adult":false,"overview":"In 1561, Mary Stuart, widow of the King of France, returns to Scotland, reclaims her rightful throne and menaces the future of Queen Elizabeth I as ruler of England, because she has a legitimate claim to the English throne. Betrayals, rebellions, conspiracies and their own life choices imperil both Queens. They experience the bitter cost of power, until their tragic fate is finally fulfilled.","release_date":"2018-12-21"}]}